{
    "coming": [{
        "id": 246061,
        "img": "http://p0.meituan.net/85.115/movie/71fba05fbe4912cb70d27b87c3c856393364925.jpg",
        "wish": 275820,
        "wishst": 0,
        "nm": "哥斯拉2：怪兽之王",
        "comingTitle": "5月31日 周五"
    }, {
        "id": 344328,
        "img": "http://p0.meituan.net/85.115/movie/47af2656af6cd0110057bc527b862c665484423.jpg",
        "wish": 220120,
        "wishst": 0,
        "nm": "X战警：黑凤凰",
        "comingTitle": "6月6日 周四"
    }, {
        "id": 1218029,
        "img": "http://p0.meituan.net/85.115/movie/e11213b2676bcf6f4eac41c482af2bdd327884.jpg",
        "wish": 206936,
        "wishst": 0,
        "nm": "少年的你",
        "comingTitle": "6月27日 周四"
    }, {
        "id": 1218141,
        "img": "http://p1.meituan.net/85.115/moviemachine/ced8d9b1ea941aa333104ce4fa371f05203502.jpg",
        "wish": 109746,
        "wishst": 0,
        "nm": "扫毒2天地对决",
        "comingTitle": "7月12日 周五"
    }, {
        "id": 346559,
        "img": "http://p0.meituan.net/85.115/movie/2a275c68da26ab87757cdeb213c98bc73651258.png",
        "wish": 97177,
        "wishst": 0,
        "nm": "黑衣人：全球追缉",
        "comingTitle": "6月14日 周五"
    }, {
        "id": 1218215,
        "img": "http://p0.meituan.net/85.115/movie/c0a02897fa49e5c529bfe3cead0f49652270427.jpg",
        "wish": 71744,
        "wishst": 0,
        "nm": "追龙Ⅱ",
        "comingTitle": "6月6日 周四"
    }, {
        "id": 1207185,
        "img": "http://p0.meituan.net/85.115/movie/313ed0afcdb4d1cc37cd12b402e9e4421137394.jpg",
        "wish": 67635,
        "wishst": 0,
        "nm": "秦明·生死语者",
        "comingTitle": "6月14日 周五"
    }, {
        "id": 1197417,
        "img": "http://p0.meituan.net/85.115/moviemachine/4e99b803b4a15c1286a7d984f864c981346472.jpg",
        "wish": 57077,
        "wishst": 0,
        "nm": "使徒行者2：谍影行动",
        "comingTitle": "8月9日 周五"
    }, {
        "id": 1213262,
        "img": "http://p1.meituan.net/85.115/movie/b04a9fac1cc78f6a4628d4cc553ea28f3382813.jpg",
        "wish": 36139,
        "wishst": 0,
        "nm": "素人特工",
        "comingTitle": "7月5日 周五"
    }, {
        "id": 1242431,
        "img": "http://p0.meituan.net/85.115/movie/3e52a18d344ff89777b28200b66326de2515799.jpg",
        "wish": 34228,
        "wishst": 0,
        "nm": "最好的我们",
        "comingTitle": "6月6日 周四"
    }],
    "paging": {
        "hasMore": true,
        "limit": 10,
        "offset": 0,
        "total": 73
    }
}